Memory_file.vcd
$date
	Sat Dec 21 14:20:10 2024
$end
$version
	QuestaSim Version 10.7c
$end
$timescale
	1ns
$end

$scope module memory_tb $end

$scope module mem_unit $end
$var parameter 32 ! DATA_IN $end
$var parameter 32 " ADDRESS $end
$var parameter 32 # MEMORY_DEPTH $end
$var parameter 32 $ DATA_OUT $end
$var wire 1 % Data_in [31] $end
$var wire 1 & Data_in [30] $end
$var wire 1 ' Data_in [29] $end
$var wire 1 ( Data_in [28] $end
$var wire 1 ) Data_in [27] $end
$var wire 1 * Data_in [26] $end
$var wire 1 + Data_in [25] $end
$var wire 1 , Data_in [24] $end
$var wire 1 - Data_in [23] $end
$var wire 1 . Data_in [22] $end
$var wire 1 / Data_in [21] $end
$var wire 1 0 Data_in [20] $end
$var wire 1 1 Data_in [19] $end
$var wire 1 2 Data_in [18] $end
$var wire 1 3 Data_in [17] $end
$var wire 1 4 Data_in [16] $end
$var wire 1 5 Data_in [15] $end
$var wire 1 6 Data_in [14] $end
$var wire 1 7 Data_in [13] $end
$var wire 1 8 Data_in [12] $end
$var wire 1 9 Data_in [11] $end
$var wire 1 : Data_in [10] $end
$var wire 1 ; Data_in [9] $end
$var wire 1 < Data_in [8] $end
$var wire 1 = Data_in [7] $end
$var wire 1 > Data_in [6] $end
$var wire 1 ? Data_in [5] $end
$var wire 1 @ Data_in [4] $end
$var wire 1 A Data_in [3] $end
$var wire 1 B Data_in [2] $end
$var wire 1 C Data_in [1] $end
$var wire 1 D Data_in [0] $end
$var wire 1 E Address [3] $end
$var wire 1 F Address [2] $end
$var wire 1 G Address [1] $end
$var wire 1 H Address [0] $end
$var wire 1 I W_EN $end
$var wire 1 J CLK $end
$var wire 1 K RST $end
$var reg 32 L Data_out [31:0] $end
$var integer 32 M i $end
$var wire 1 % Data_in [31] $end
$var wire 1 & Data_in [30] $end
$var wire 1 ' Data_in [29] $end
$var wire 1 ( Data_in [28] $end
$var wire 1 ) Data_in [27] $end
$var wire 1 * Data_in [26] $end
$var wire 1 + Data_in [25] $end
$var wire 1 , Data_in [24] $end
$var wire 1 - Data_in [23] $end
$var wire 1 . Data_in [22] $end
$var wire 1 / Data_in [21] $end
$var wire 1 0 Data_in [20] $end
$var wire 1 1 Data_in [19] $end
$var wire 1 2 Data_in [18] $end
$var wire 1 3 Data_in [17] $end
$var wire 1 4 Data_in [16] $end
$var wire 1 5 Data_in [15] $end
$var wire 1 6 Data_in [14] $end
$var wire 1 7 Data_in [13] $end
$var wire 1 8 Data_in [12] $end
$var wire 1 9 Data_in [11] $end
$var wire 1 : Data_in [10] $end
$var wire 1 ; Data_in [9] $end
$var wire 1 < Data_in [8] $end
$var wire 1 = Data_in [7] $end
$var wire 1 > Data_in [6] $end
$var wire 1 ? Data_in [5] $end
$var wire 1 @ Data_in [4] $end
$var wire 1 A Data_in [3] $end
$var wire 1 B Data_in [2] $end
$var wire 1 C Data_in [1] $end
$var wire 1 D Data_in [0] $end
$var wire 1 E Address [3] $end
$var wire 1 F Address [2] $end
$var wire 1 G Address [1] $end
$var wire 1 H Address [0] $end
$var wire 1 I W_EN $end
$var wire 1 J CLK $end
$var wire 1 K RST $end
$upscope $end
$upscope $end
$enddefinitions $end
#0
$dumpvars
bx L
b100000 !
b100 "
b10000 #
b100000 $
bx M
xD
xC
xB
xA
x@
x?
x>
x=
x<
x;
x:
x9
x8
x7
x6
x5
x4
x3
x2
x1
x0
x/
x.
x-
x,
x+
x*
x)
x(
x'
x&
x%
xH
xG
xF
xE
xI
1J
xK
$end
#5
0J
0H
0G
0F
0E
0D
0C
0B
0A
0@
0?
0>
0=
0<
0;
0:
09
08
07
06
05
04
03
02
01
00
0/
0.
0-
0,
0+
0*
0)
0(
0'
0&
0%
0I
0K
b0 M
b1 M
b10 M
b11 M
b100 M
b101 M
b110 M
b111 M
b1000 M
b1001 M
b1010 M
b1011 M
b1100 M
b1101 M
b1110 M
b1111 M
b10000 M
b0 L
#10
1J
b0 M
b1 M
b10 M
b11 M
b100 M
b101 M
b110 M
b111 M
b1000 M
b1001 M
b1010 M
b1011 M
b1100 M
b1101 M
b1110 M
b1111 M
b10000 M
#15
0J
1G
1E
1D
1B
1A
1=
1<
1;
1:
19
18
17
15
12
1(
1'
1&
1I
1K
#20
1J
#25
0J
1H
1F
0E
0A
1?
0;
0:
09
13
1/
1)
#30
1J
#35
0J
1E
1C
0B
1@
1>
0=
0<
1;
19
05
14
03
02
10
0/
1-
1,
1*
0)
0(
0'
0&
1%
#40
1J
#45
0J
0H
0G
0F
0E
0D
0C
0@
1<
0;
09
08
07
15
04
1/
0-
1+
1'
#50
1J
#55
0J
1E
1C
1A
1@
0?
0>
0<
1;
1:
19
18
16
14
13
12
0/
0+
0*
1)
1(
#60
1J
#65
0J
1H
1F
0E
1D
0C
1B
0A
1?
0;
09
08
17
04
02
00
1/
1.
1-
0)
0'
0%
#70
1J
#75
0J
1E
0B
0@
0?
1<
1;
19
18
06
05
14
03
12
10
1*
1)
0(
1&
1%
#80
1J
#85
0J
0H
1G
0E
0D
1C
1A
1=
0<
09
08
16
13
02
00
0/
0*
0)
0&
#90
1J
#95
0J
1E
0C
1B
1@
0=
19
18
15
04
11
1/
0-
1)
1&
0%
#100
1J
#105
0J
1H
0F
0E
0A
0@
1>
1=
08
07
06
05
10
0/
1-
0,
1+
1*
0)
1(
0&
#110
1J
#115
0J
1E
1D
1C
0B
1A
1@
0=
0;
18
17
03
01
00
1/
0+
0*
1)
0(
#120
1J
#125
0J
0H
0G
1F
0E
0D
0@
1=
09
14
11
0.
0-
1,
1+
1*
0)
1'
1&
#130
1J
#135
0J
1E
0C
1?
0>
1<
1;
19
07
16
13
1.
0,
0+
1(
0&
1%
#140
1J
#145
0J
1H
0F
0E
0A
0;
0:
08
17
04
10
0/
0.
0(
1&
#150
1J
#155
0J
1E
1B
1@
1>
0<
1;
1:
18
07
15
14
12
01
1-
1,
0'
0&
#160
1J
#165
0J
0H
1G
0E
1D
1A
0@
0>
0=
1<
09
08
05
04
03
02
00
1.
0-
1+
0*
1)
1(
1&
#170
1J
#175
0J
1H
0G
1E
1C
0B
0A
1>
1=
0;
0:
18
17
06
15
14
10
0.
0+
1'
0&
0I
#180
1J
b10000101100101111101111011110100 L
#185
0J
1G
1F
0D
0?
0>
0=
07
00
1/
1.
1-
0(
1&
0%
#190
1J
b10000101100100010011101001110011 L
#195
0J
0G
1D
1B
1A
1?
1>
1=
0<
1;
19
08
05
13
0/
0.
0,
0)
1(
0&
#200
1J
b11001101111101010011111100000001 L
#205
0J
1G
0F
0E
0D
0A
1@
0?
0>
0=
18
04
12
1/
1,
1+
1)
#210
1J
b10110110110100000111011000100 L
#215
0J
0G
1D
0B
1A
1?
1>
0;
08
17
15
14
02
11
0/
0-
0,
0+
1*
0(
1&
#220
1J
b11100100000110100110100110100000 L
#225
0J
0H
1G
1E
0D
0C
1B
0A
0>
1:
09
18
07
05
1/
1.
1-
1,
1+
0)
1(
0&
1%
#230
1J
b1110000000001001011111110001101 L
#235
0J
1H
1F
0E
0B
0@
0?
1<
03
0-
0*
0(
1&
0%
#240
1J
b1111000001001101011000110100101 L
#245
0J
0H
0G
0F
1E
1D
1C
1@
1?
0<
1;
17
15
12
01
0/
0.
1-
0+
1)
0'
0&
1%
#250
1J
b10111001000101111101111000011010 L
#255
0J
1H
1F
0E
0C
0@
1>
1<
0;
19
07
05
13
0-
0,
1*
1(
1'
#260
1J
b10001111000101110010000110101 L
#265
0J
0H
1G
1E
0D
1C
0>
1=
0<
1;
17
04
10
1,
0*
0'
#270
1J
b1001001011010101111111000011100 L
#275
0J
0G
1B
1A
0?
1<
0:
02
00
0,
0(
1&
0%
#280
1J
b10110100011010110101111110101000 L
#285
0J
1G
0F
0E
1D
0A
0<
0;
14
12
11
#290
1J
b11011011010000000100011100101101 L
#295
0J
0G
0C
1A
1@
1?
1>
0=
1:
07
16
03
02
01
1/
1-
1*
1(
1'
0&
#300
1J
b10100111001100001000000101100000 L
#305
0J
1G
1F
0B
0A
0?
0>
1=
1;
0:
09
08
04
13
12
11
1.
1,
0)
1%
#310
1J
b10000001110000110110011010001010 L
#315
0J
1H
0F
1E
1C
1B
1<
0;
1:
19
18
17
01
0.
0*
1)
0(
1&
0%
#320
1J
b1000111000000011110001011011 L
#325
0J
0H
0G
1F
0E
0D
1A
0@
0<
1;
07
14
02
11
10
1.
0,
1*
0'
#330
1J
b1100111001010010011010011001010 L
#335
0J
1H
1G
0F
1E
1D
1>
0;
08
17
15
04
03
12
01
00
0/
1,
1+
1'
#340
1J
b1000111000000011110001011011 L
